Regions and provinces in Italy (high detail, CC-BY Istat) — ll_get_lau_pt • latlon2map
…
    Examples

ll_set_folder(fs::path(fs::path_home_r(), "R"))
#> /home/runner/R
ll_get_lau_pt()
#> ℹ Source: https://dados.gov.pt/pt/datasets/freguesias-de-portugal/
#> ℹ dados.gov.pt (CC-BY)
#> Simple feature collection with 3223 features and 8 fields
#> Geometry type: POLYGON
#> Dimension:     XY
#> Bounding box:  xmin: -9.517029 ymin: 36.96171 xmax: -6.189159 ymax: 42.15431
#> Geodetic CRS:  WGS 84
#> # A tibble: 3,223 × 9
#>    Dicofre Freguesia               Conce…¹ Distr…² TAA   AREA_…³ AREA_…⁴ Des_S…⁵
#>  * <chr>   <chr>                   <chr>   <chr>   <chr>   <dbl>   <dbl> <chr>  
#>  1 080106  Albufeira e Olhos de Á… ALBUFE… FARO    ÁREA…    0.09   4118. Albufe…
#>  2 081504  Sagres                  VILA D… FARO    ÁREA… 3432.     3437. Sagres 
#>  3 080106  Albufeira e Olhos de Á… ALBUFE… FARO    ÁREA…    0.01   4118. Albufe…
#>  4 080106  Albufeira e Olhos de Á… ALBUFE… FARO    ÁREA…    0.01   4118. Albufe…
#>  5 080106  Albufeira e Olhos de Á… ALBUFE… FARO    ÁREA…    0.01   4118. Albufe…
#>  6 080106  Albufeira e Olhos de Á… ALBUFE… FARO    ÁREA…    0.01   4118. Albufe…
#>  7 080106  Albufeira e Olhos de Á… ALBUFE… FARO    ÁREA…    0.01   4118. Albufe…
#>  8 080106  Albufeira e Olhos de Á… ALBUFE… FARO    ÁREA…    0.01   4118. Albufe…
#>  9 080106  Albufeira e Olhos de Á… ALBUFE… FARO    ÁREA…    0.02   4118. Albufe…
#> 10 080106  Albufeira e Olhos de Á… ALBUFE… FARO    ÁREA…    0.01   4118. Albufe…
#> # … with 3,213 more rows, 1 more variable: geometry <POLYGON [°]>, and
#> #   abbreviated variable names ¹​Concelho, ²​Distrito, ³​AREA_EA_Ha, ⁴​AREA_T_Ha,
#> #   ⁵​Des_Simpli
…
